// Jest Snapshot v1, https://goo.gl/fbAQLP

exports[`Create Page Renders properly with default configuration 1`] = `
<div>
  <div
    class="is-sticky"
    data-testid="setting-layouts"
  >
    <div
      class="page-header mb-9 page-header-top"
    >
      <div
        class="flex items-center"
      >
        <h2
          class="text-6xl md:h5 m-0 pt-24px pb-24px capitalize"
        >
          Storefront
        </h2>
      </div>
      <div>
        <span
          class="text-base font-light opacity-70 text-black"
          data-testid="active-domain-text"
        >
          domain.com
        </span>
        <button
          class="ml-6 btn btn-outline-primary"
          data-testid="dashboard-copy-link-btn"
          type="button"
        >
          Copy link
          <svg
            class="icon-base ml-2"
            fill="currentColor"
            height="1em"
            viewBox="0 0 16 16"
            width="1em"
            xmlns="http://www.w3.org/2000/svg"
          >
            <path
              d="M4.715 6.542 3.343 7.914a3 3 0 1 0 4.243 4.243l1.828-1.829A3 3 0 0 0 8.586 5.5L8 6.086a1.002 1.002 0 0 0-.154.199 2 2 0 0 1 .861 3.337L6.88 11.45a2 2 0 1 1-2.83-2.83l.793-.792a4.018 4.018 0 0 1-.128-1.287z"
            />
            <path
              d="M6.586 4.672A3 3 0 0 0 7.414 9.5l.775-.776a2 2 0 0 1-.896-3.346L9.12 3.55a2 2 0 1 1 2.83 2.83l-.793.792c.112.42.155.855.128 1.287l1.372-1.372a3 3 0 1 0-4.243-4.243L6.586 4.672z"
            />
          </svg>
        </button>
        <a
          class="ml-6 btn btn-primary"
          data-testid="dashboard-view-storefront-btn"
          href="https://domain.com"
          role="button"
          tabindex="0"
          target="_blank"
        >
          Lihat Storefront
          <svg
            class="icon-base ml-2"
            fill="currentColor"
            height="1em"
            viewBox="0 0 16 16"
            width="1em"
            xmlns="http://www.w3.org/2000/svg"
          >
            <path
              d="M8.636 3.5a.5.5 0 0 0-.5-.5H1.5A1.5 1.5 0 0 0 0 4.5v10A1.5 1.5 0 0 0 1.5 16h10a1.5 1.5 0 0 0 1.5-1.5V7.864a.5.5 0 0 0-1 0V14.5a.5.5 0 0 1-.5.5h-10a.5.5 0 0 1-.5-.5v-10a.5.5 0 0 1 .5-.5h6.636a.5.5 0 0 0 .5-.5z"
              fill-rule="evenodd"
            />
            <path
              d="M16 .5a.5.5 0 0 0-.5-.5h-5a.5.5 0 0 0 0 1h3.793L6.146 9.146a.5.5 0 1 0 .708.708L15 1.707V5.5a.5.5 0 0 0 1 0v-5z"
              fill-rule="evenodd"
            />
          </svg>
        </a>
      </div>
    </div>
    <div
      class="max-w-full h-[48px]"
    >
      <ul
        class="bg-white flex border border-white rounded-xl w-full p-1 list-none whitespace-nowrap overflow-auto"
      >
        <li
          class="w-full p-0"
        >
          <a
            class="flex justify-center items-center rounded-lg h-base px-4 bg-white text-primary"
            href="/storefront-editor/settings/domain"
          >
            <span
              class="font-bold text-sm"
            >
              Domain
            </span>
          </a>
        </li>
        <li
          class="w-full p-0"
        >
          <a
            class="flex justify-center items-center rounded-lg h-base px-4 bg-white text-primary"
            href="/storefront-editor/settings/custom-website"
          >
            <span
              class="font-bold text-sm"
            >
              Custom Website
            </span>
          </a>
        </li>
        <li
          class="w-full p-0"
        >
          <a
            aria-current="page"
            class="flex justify-center items-center rounded-lg h-base px-4 bg-primary text-white"
            href="/storefront-editor/settings/manage-pages"
          >
            <span
              class="font-bold text-sm"
            >
              Atur Halaman
            </span>
          </a>
        </li>
        <li
          class="w-full p-0"
        >
          <a
            class="flex justify-center items-center rounded-lg h-base px-4 bg-white text-primary"
            href="/storefront-editor/settings/marketing-tools"
          >
            <span
              class="font-bold text-sm"
            >
              Marketing Tools
            </span>
          </a>
        </li>
        <li
          class="w-full p-0"
        >
          <a
            class="flex justify-center items-center rounded-lg h-base px-4 bg-white text-primary"
            href="/storefront-editor/settings/coupons"
          >
            <span
              class="font-bold text-sm"
            >
              Kupon
            </span>
          </a>
        </li>
        <li
          class="w-full p-0"
        >
          <a
            class="flex justify-center items-center rounded-lg h-base px-4 bg-white text-primary"
            href="/setting_frontstore/general"
          >
            <span
              class="font-bold text-sm"
            >
              Setting
            </span>
          </a>
        </li>
      </ul>
    </div>
  </div>
  <form
    class=""
  >
    <div
      class="flex flex-col-reverse md:grid grid-cols-12 gap-24px"
    >
      <div
        class="col-span-12 md:col-span-9"
      >
        <div
          class="p-6 card"
        >
          <div
            class="inline-block"
          >
            <a
              class="flex mb-5 items-center opacity-50"
              href="/storefront-editor/settings/manage-pages"
            >
              <span
                class="fi-rr-angle-small-left text-black text-3xl leading-6"
              />
              <span
                class="text-base text-black font-light mt-[2px]"
              >
                Kembali
              </span>
            </a>
          </div>
          <div
            class="mb-5"
          >
            <label
              aria-required="true"
              class="mb-5 form-label"
              for="page-title"
            >
              Judul halaman
            </label>
            <input
              class="form-control"
              id="page-title"
              maxlength="160"
              name="title"
              type="text"
              value=""
            />
          </div>
          <div
            class=""
          >
            <label
              aria-required="true"
              class="mb-5 whitespace-nowrap form-label"
              for="page-content"
            >
              Isi halaman
            </label>
            <textarea
              data=""
              id="page-content"
              name="content"
            />
            <div
              class="text-sm mt-2 invalid-feedback"
            />
          </div>
        </div>
      </div>
      <div
        class="col-span-12 md:col-span-3"
      >
        <div
          class="p-6 mb-0 card"
        >
          <div
            class="justify-between mb-6 hstack"
          >
            <label
              class="font-light text-base mb-0 form-label"
              for="page-status"
            >
              Dilihat publik
            </label>
            <div
              class="form-switch"
            >
              <input
                class="form-check-input"
                id="page-status"
                type="checkbox"
              />
            </div>
          </div>
          <button
            class="w-full btn btn-primary btn-sm"
            disabled=""
            type="submit"
          >
            Buat halaman
          </button>
        </div>
      </div>
    </div>
  </form>
  ,
</div>
`;
