<svg width="120" height="120" viewBox="0 0 120 120" fill="none" xmlns="http://www.w3.org/2000/svg">
<path d="M42.5 83C64.3152 83 82 65.3152 82 43.5C82 21.6848 64.3152 4 42.5 4C20.6848 4 3 21.6848 3 43.5C3 65.3152 20.6848 83 42.5 83Z" fill="#EAF4FE"/>
<path d="M16.9084 29.2981H98.5312C100.466 29.2981 102.321 30.2113 103.689 31.8367C105.057 33.4622 105.826 35.6668 105.826 37.9655V104.48H9.61382V37.9655C9.61382 35.6668 10.3823 33.4622 11.7503 31.8367C13.1183 30.2113 14.9737 29.2981 16.9084 29.2981V29.2981Z" fill="white" stroke="#261D72" stroke-width="0.589714" stroke-linecap="round" stroke-linejoin="round"/>
<path d="M26.7812 22.7094L19.0411 43.0752H98.0924L90.0545 22.6381C89.6425 21.5897 88.9873 20.7027 88.1658 20.0813C87.3444 19.4599 86.3907 19.1299 85.4169 19.13H31.4465C30.4615 19.1302 29.4974 19.468 28.6699 20.1029C27.8425 20.7378 27.1867 21.6428 26.7812 22.7094V22.7094Z" fill="white" stroke="#261D72" stroke-width="0.589714" stroke-linecap="round" stroke-linejoin="round"/>
<path d="M113.678 104.939C113.678 105.667 113.435 106.364 113.002 106.879C112.569 107.393 111.982 107.682 111.37 107.682H4.11222C3.49999 107.682 2.91284 107.393 2.47993 106.879C2.04702 106.364 1.80382 105.667 1.80382 104.939C1.80385 104.773 1.81699 104.608 1.84306 104.445H113.639C113.665 104.608 113.678 104.773 113.678 104.939V104.939Z" fill="white" stroke="#261D72" stroke-width="0.589714" stroke-linecap="round" stroke-linejoin="round"/>
<path d="M93.1255 104.48V57.3389V49.2529H25.7294V104.39L93.1255 104.48Z" fill="white" stroke="#261D72" stroke-width="0.589714" stroke-linecap="round" stroke-linejoin="round"/>
<path d="M34.5442 77.4441H41.5341C42.2161 77.4441 42.8702 77.766 43.3524 78.339C43.8347 78.9121 44.1056 79.6893 44.1056 80.4996V91.8633H31.9727V80.5024C31.9724 80.1009 32.0387 79.7033 32.1678 79.3322C32.2969 78.9612 32.4862 78.624 32.725 78.34C32.9639 78.056 33.2475 77.8307 33.5596 77.6769C33.8718 77.5232 34.2063 77.4441 34.5442 77.4441V77.4441Z" fill="white" stroke="#261D72" stroke-width="0.589714" stroke-linecap="round" stroke-linejoin="round"/>
<path d="M77.48 77.4441H84.4721C85.1542 77.4441 85.8083 77.766 86.2905 78.339C86.7728 78.9121 87.0437 79.6893 87.0437 80.4996V91.8633H74.9084V80.5024C74.9081 80.1009 74.9744 79.7033 75.1035 79.3322C75.2326 78.9612 75.422 78.624 75.6608 78.34C75.8996 78.056 76.1832 77.8307 76.4954 77.6769C76.8075 77.5232 77.1421 77.4441 77.48 77.4441V77.4441Z" fill="white" stroke="#261D72" stroke-width="0.589714" stroke-linecap="round" stroke-linejoin="round"/>
<path d="M13.9532 96.2795C20.8888 96.2795 26.5113 90.657 26.5113 83.7213C26.5113 76.7857 20.8888 71.1632 13.9532 71.1632C7.01751 71.1632 1.39503 76.7857 1.39503 83.7213C1.39503 90.657 7.01751 96.2795 13.9532 96.2795Z" fill="#1155CC" stroke="#261D72" stroke-width="0.589714" stroke-miterlimit="10"/>
<path d="M15.8829 75.9801C17.6112 76.4092 19.1461 77.4044 20.2432 78.8071C21.3402 80.2099 21.9362 81.9394 21.9362 83.7202C21.9362 85.5009 21.3402 87.2304 20.2432 88.6332C19.1461 90.0359 17.6112 91.0311 15.8829 91.4602" fill="#1155CC"/>
<path d="M15.8829 75.9801C17.6112 76.4092 19.1461 77.4044 20.2432 78.8071C21.3402 80.2099 21.9362 81.9394 21.9362 83.7202C21.9362 85.5009 21.3402 87.2304 20.2432 88.6332C19.1461 90.0359 17.6112 91.0311 15.8829 91.4602" stroke="white" stroke-width="0.982857" stroke-linecap="round" stroke-linejoin="round"/>
<path d="M12.0269 91.4602C10.2986 91.0311 8.76363 90.0359 7.66659 88.6332C6.56956 87.2304 5.97356 85.5009 5.97356 83.7202C5.97356 81.9394 6.56956 80.2099 7.66659 78.8071C8.76363 77.4044 10.2986 76.4092 12.0269 75.9801" fill="#1155CC"/>
<path d="M12.0269 91.4602C10.2986 91.0311 8.76363 90.0359 7.66659 88.6332C6.56956 87.2304 5.97356 85.5009 5.97356 83.7202C5.97356 81.9394 6.56956 80.2099 7.66659 78.8071C8.76363 77.4044 10.2986 76.4092 12.0269 75.9801" stroke="white" stroke-width="0.982857" stroke-linecap="round" stroke-linejoin="round"/>
<path d="M11.6595 90.046L12.2812 91.461L10.9284 92.2468" fill="#1155CC"/>
<path d="M11.6595 90.046L12.2812 91.461L10.9284 92.2468" stroke="white" stroke-width="0.982857" stroke-linecap="round" stroke-linejoin="round"/>
<path d="M15.7448 76.9874L15.2449 75.851L16.3317 75.2194" fill="#1155CC"/>
<path d="M15.7448 76.9874L15.2449 75.851L16.3317 75.2194" stroke="white" stroke-width="0.982857" stroke-linecap="round" stroke-linejoin="round"/>
<path d="M15.405 56.691V54.2499" stroke="#1155CC" stroke-width="0.393143" stroke-miterlimit="10" stroke-linecap="round"/>
<path d="M15.4004 60.4298V57.9886" stroke="#1155CC" stroke-width="0.393143" stroke-miterlimit="10" stroke-linecap="round"/>
<path d="M16.2634 57.3948H18.3179" stroke="#1155CC" stroke-width="0.393143" stroke-miterlimit="10" stroke-linecap="round"/>
<path d="M12.4785 57.3895H14.533" stroke="#1155CC" stroke-width="0.393143" stroke-miterlimit="10" stroke-linecap="round"/>
<path d="M116.001 90.8035H109.985C109.317 90.8035 108.776 91.447 108.776 92.2407V99.3886C108.776 100.182 109.317 100.826 109.985 100.826H116.001C116.669 100.826 117.211 100.182 117.211 99.3886V92.2407C117.211 91.447 116.669 90.8035 116.001 90.8035Z" fill="#EAF4FE"/>
<path d="M19.1449 43.2041L26.8943 22.4543C27.2642 21.4653 27.8676 20.6249 28.6313 20.0349C29.3949 19.4449 30.2862 19.1306 31.1971 19.13H36.4026L32.3028 43.2041H19.1449Z" fill="#F8C84F" stroke="#261D72" stroke-width="0.589714" stroke-miterlimit="10"/>
<path d="M45.4768 43.2041L47.9791 19.13H58.5632L58.6416 43.2041H45.4768Z" fill="#F8C84F" stroke="#261D72" stroke-width="0.589714" stroke-miterlimit="10"/>
<path d="M71.8028 43.2041L69.0974 19.13H79.9307L84.9676 43.2041H71.8028Z" fill="#F8C84F" stroke="#261D72" stroke-width="0.589714" stroke-miterlimit="10"/>
<path d="M19.1449 43.2001H32.3028V49.6732C32.3028 51.7472 31.6095 53.7362 30.3752 55.2027C29.141 56.6692 27.467 57.4931 25.7216 57.4931V57.4931C23.9769 57.4917 22.3041 56.6671 21.0709 55.2008C19.8377 53.7344 19.1449 51.7462 19.1449 49.6732V43.2001Z" fill="#F8C84F" stroke="#261D72" stroke-width="0.589714" stroke-miterlimit="10"/>
<path d="M32.3017 43.2001H45.4596V49.6732C45.4596 51.7472 44.7663 53.7362 43.532 55.2027C42.2978 56.6692 40.6238 57.4931 38.8784 57.4931C37.1337 57.4917 35.4609 56.6671 34.2277 55.2008C32.9945 53.7344 32.3017 51.7462 32.3017 49.6732V43.2001Z" fill="white" stroke="#261D72" stroke-width="0.589714" stroke-linecap="round" stroke-linejoin="round"/>
<path d="M45.4763 43.2001H58.6342V49.6732C58.6342 51.7472 57.9408 53.7362 56.7066 55.2027C55.4723 56.6692 53.7984 57.4931 52.0529 57.4931C50.3075 57.4931 48.6335 56.6692 47.3993 55.2027C46.165 53.7362 45.4717 51.7472 45.4717 49.6732V43.2001H45.4763Z" fill="#F8C84F" stroke="#261D72" stroke-width="0.589714" stroke-miterlimit="10"/>
<path d="M58.6416 43.2001H71.7995V49.6732C71.7995 51.7472 71.1061 53.7362 69.8719 55.2027C68.6377 56.6692 66.9637 57.4931 65.2183 57.4931C63.4728 57.4931 61.7988 56.6692 60.5646 55.2027C59.3304 53.7362 58.637 51.7472 58.637 49.6732V43.2001H58.6416Z" fill="white" stroke="#261D72" stroke-width="0.589714" stroke-linecap="round" stroke-linejoin="round"/>
<path d="M71.8046 43.2001H84.9625V49.6732C84.9625 51.7472 84.2691 53.7362 83.0349 55.2027C81.8007 56.6692 80.1267 57.4931 78.3813 57.4931V57.4931C76.6358 57.4931 74.9618 56.6692 73.7276 55.2027C72.4934 53.7362 71.8 51.7472 71.8 49.6732V43.2001H71.8046Z" fill="#F8C84F" stroke="#261D72" stroke-width="0.589714" stroke-miterlimit="10"/>
<path d="M84.9681 43.2001H98.126V49.6732C98.126 51.7472 97.4327 53.7362 96.1984 55.2027C94.9642 56.6692 93.2903 57.4931 91.5448 57.4931C89.7993 57.4931 88.1254 56.6692 86.8911 55.2027C85.6569 53.7362 84.9635 51.7472 84.9635 49.6732V43.2001H84.9681Z" fill="white" stroke="#261D72" stroke-width="0.589714" stroke-linecap="round" stroke-linejoin="round"/>
<path d="M52.3961 68.7887H66.3665C66.6673 68.7887 66.965 68.8591 67.2428 68.9958C67.5207 69.1326 67.7731 69.333 67.9858 69.5856C68.1984 69.8383 68.3671 70.1382 68.4822 70.4684C68.5972 70.7985 68.6565 71.1523 68.6565 71.5096V104.204H50.1062V71.5124C50.1059 71.1548 50.1649 70.8007 50.2798 70.4703C50.3947 70.1398 50.5634 69.8396 50.776 69.5866C50.9887 69.3337 51.2413 69.133 51.5192 68.9961C51.7972 68.8592 52.0952 68.7887 52.3961 68.7887V68.7887Z" fill="#1155CC" stroke="#261D72" stroke-width="0.589714" stroke-miterlimit="10"/>
<path d="M109.333 77.359L102.158 74.597L99.0398 73.3956C98.912 73.3455 98.7749 73.339 98.6441 73.3767C98.5133 73.4145 98.394 73.4951 98.2998 73.6093C98.2056 73.7236 98.1402 73.8669 98.111 74.023C98.0819 74.1792 98.0902 74.3419 98.1349 74.4928L99.1968 78.1792L101.641 86.6546C101.685 86.8075 101.768 86.9404 101.879 87.0345C101.989 87.1286 102.122 87.1792 102.258 87.1792C102.394 87.1792 102.526 87.1286 102.637 87.0345C102.747 86.9404 102.83 86.8075 102.874 86.6546L104.19 82.0576L107.634 86.0813C107.733 86.1968 107.85 86.2879 107.978 86.3497C108.107 86.4114 108.244 86.4424 108.383 86.441C108.521 86.4396 108.658 86.4058 108.786 86.3415C108.914 86.2772 109.029 86.1837 109.126 86.0662C109.223 85.9488 109.3 85.8098 109.352 85.6571C109.404 85.5045 109.43 85.3411 109.429 85.1765C109.428 85.0118 109.399 84.849 109.345 84.6975C109.291 84.5459 109.212 84.4084 109.114 84.293L105.753 80.3625L109.351 78.8265C109.48 78.7728 109.592 78.6723 109.67 78.5392C109.748 78.4061 109.789 78.2472 109.787 78.0848C109.785 77.9225 109.74 77.7651 109.659 77.6348C109.577 77.5045 109.463 77.4081 109.333 77.359V77.359Z" fill="#1155CC"/>
<path d="M55.27 84.2862C55.27 83.6045 54.8049 83.0519 54.2312 83.0519C53.6575 83.0519 53.1924 83.6045 53.1924 84.2862V86.4804C53.1924 87.1621 53.6575 87.7147 54.2312 87.7147C54.8049 87.7147 55.27 87.1621 55.27 86.4804V84.2862Z" fill="#F8C84F" stroke="#261D72" stroke-width="0.393143" stroke-miterlimit="10"/>
<path d="M29.3461 91.8639H46.1997" stroke="#261D72" stroke-width="0.589714" stroke-miterlimit="10" stroke-linecap="round"/>
<path d="M72.4892 91.7705H89.3428" stroke="#261D72" stroke-width="0.589714" stroke-miterlimit="10" stroke-linecap="round"/>
</svg>
