// Jest Snapshot v1, https://goo.gl/fbAQLP

exports[`Custom Website Page Should match snapshot 1`] = `
<div>
  <div
    class="is-sticky"
    data-testid="setting-layouts"
  >
    <div
      class="page-header mb-9 page-header-top"
    >
      <div
        class="flex items-center"
      >
        <h2
          class="text-6xl md:h5 m-0 pt-24px pb-24px capitalize"
        >
          Storefront
        </h2>
      </div>
      <div>
        <span
          class="text-base font-light opacity-70 text-black"
          data-testid="active-domain-text"
        >
          domain.com
        </span>
        <button
          class="ml-6 btn btn-outline-primary"
          data-testid="dashboard-copy-link-btn"
          type="button"
        >
          Copy link
          <svg
            class="icon-base ml-2"
            fill="currentColor"
            height="1em"
            viewBox="0 0 16 16"
            width="1em"
            xmlns="http://www.w3.org/2000/svg"
          >
            <path
              d="M4.715 6.542 3.343 7.914a3 3 0 1 0 4.243 4.243l1.828-1.829A3 3 0 0 0 8.586 5.5L8 6.086a1.002 1.002 0 0 0-.154.199 2 2 0 0 1 .861 3.337L6.88 11.45a2 2 0 1 1-2.83-2.83l.793-.792a4.018 4.018 0 0 1-.128-1.287z"
            />
            <path
              d="M6.586 4.672A3 3 0 0 0 7.414 9.5l.775-.776a2 2 0 0 1-.896-3.346L9.12 3.55a2 2 0 1 1 2.83 2.83l-.793.792c.112.42.155.855.128 1.287l1.372-1.372a3 3 0 1 0-4.243-4.243L6.586 4.672z"
            />
          </svg>
        </button>
        <a
          class="ml-6 btn btn-primary"
          data-testid="dashboard-view-storefront-btn"
          href="https://domain.com"
          role="button"
          tabindex="0"
          target="_blank"
        >
          Lihat Storefront
          <svg
            class="icon-base ml-2"
            fill="currentColor"
            height="1em"
            viewBox="0 0 16 16"
            width="1em"
            xmlns="http://www.w3.org/2000/svg"
          >
            <path
              d="M8.636 3.5a.5.5 0 0 0-.5-.5H1.5A1.5 1.5 0 0 0 0 4.5v10A1.5 1.5 0 0 0 1.5 16h10a1.5 1.5 0 0 0 1.5-1.5V7.864a.5.5 0 0 0-1 0V14.5a.5.5 0 0 1-.5.5h-10a.5.5 0 0 1-.5-.5v-10a.5.5 0 0 1 .5-.5h6.636a.5.5 0 0 0 .5-.5z"
              fill-rule="evenodd"
            />
            <path
              d="M16 .5a.5.5 0 0 0-.5-.5h-5a.5.5 0 0 0 0 1h3.793L6.146 9.146a.5.5 0 1 0 .708.708L15 1.707V5.5a.5.5 0 0 0 1 0v-5z"
              fill-rule="evenodd"
            />
          </svg>
        </a>
      </div>
    </div>
    <div
      class="max-w-full h-[48px]"
    >
      <ul
        class="bg-white flex border border-white rounded-xl w-full p-1 list-none whitespace-nowrap overflow-auto"
      >
        <li
          class="w-full p-0"
        >
          <a
            class="flex justify-center items-center rounded-lg h-base px-4 bg-white text-primary"
            href="/storefront-editor/settings/domain"
          >
            <span
              class="font-bold text-sm"
            >
              Domain
            </span>
          </a>
        </li>
        <li
          class="w-full p-0"
        >
          <a
            aria-current="page"
            class="flex justify-center items-center rounded-lg h-base px-4 bg-primary text-white"
            href="/storefront-editor/settings/custom-website"
          >
            <span
              class="font-bold text-sm"
            >
              Custom Website
            </span>
          </a>
        </li>
        <li
          class="w-full p-0"
        >
          <a
            class="flex justify-center items-center rounded-lg h-base px-4 bg-white text-primary"
            href="/storefront-editor/settings/manage-pages"
          >
            <span
              class="font-bold text-sm"
            >
              Atur Halaman
            </span>
          </a>
        </li>
        <li
          class="w-full p-0"
        >
          <a
            class="flex justify-center items-center rounded-lg h-base px-4 bg-white text-primary"
            href="/storefront-editor/settings/marketing-tools"
          >
            <span
              class="font-bold text-sm"
            >
              Marketing Tools
            </span>
          </a>
        </li>
        <li
          class="w-full p-0"
        >
          <a
            class="flex justify-center items-center rounded-lg h-base px-4 bg-white text-primary"
            href="/storefront-editor/settings/coupons"
          >
            <span
              class="font-bold text-sm"
            >
              Kupon
            </span>
          </a>
        </li>
        <li
          class="w-full p-0"
        >
          <a
            class="flex justify-center items-center rounded-lg h-base px-4 bg-white text-primary"
            href="/setting_frontstore/general"
          >
            <span
              class="font-bold text-sm"
            >
              Setting
            </span>
          </a>
        </li>
      </ul>
    </div>
  </div>
  <div
    class="px-24px py-24px card"
  >
    <div
      class="card-body"
    >
      <div
        class="justify-between mb-8  hstack"
      >
        <div
          class="vstack gap-2"
        >
          <h3
            class="text-2xl font-bold"
          >
            Tema Website Kamu
          </h3>
          <p
            class="text-base max-w-[320px] "
          >
            <span
              class="opacity-60 mr-1"
            >
              Ini adalah tema yang lagi aktif digunakan di website kamu.
            </span>
          </p>
        </div>
        <div
          class="self-end hstack gap-1"
        >
          <a
            class="w-[160px] py-2 text-light btn btn-primary"
            href="/storefront-editor/settings/custom-website/builder"
            role="button"
            tabindex="0"
          >
            Custom sekarang
          </a>
        </div>
      </div>
      <hr
        class="mb-8"
      />
      <div
        class="gap-48px hstack"
      >
        <div>
          <h2
            class="text-3xl mb-3"
          >
            Ubah Tema
          </h2>
          <p
            class="text-base max-w-[300px] opacity-70"
          >
            Pilih tema yang kamu inginkan untuk website-mu.
          </p>
        </div>
        <h3
          class="text-6xl font-light ml-8 capitalize text-blue-600"
          data-testid="selected-theme-name"
        >
          naomi
        </h3>
      </div>
      <div
        class="grid grid-cols-2 md:grid-cols-4 gap-x-9"
      >
        <div>
          <div
            class="mt-8 p-3 rounded-xl cursor-pointer relative border transition-all duration-500 border-gray-100 bg-gray-100"
            data-testid="theme-default"
          >
            <span
              aria-label="default"
              class="rounded-xl w-full theme-thumbnail"
              data-testid="theme-thumbnail"
              role="img"
              style="background-image: url(https://storefront-sandbox-bucket.smartseller.co.id/images/theme-default-small.png);"
            />
          </div>
          <p
            class="text-base leading-8 mt-2 capitalize"
          >
            default
          </p>
        </div>
        <div>
          <div
            class="mt-8 p-3 rounded-xl cursor-pointer relative border transition-all duration-500 border-blue-600 bg-blue-50"
            data-testid="theme-naomi"
          >
            <span
              aria-label="naomi"
              class="rounded-xl w-full theme-thumbnail"
              data-testid="theme-thumbnail"
              role="img"
              style="background-image: url(https://storefront-sandbox-bucket.smartseller.co.id/images/theme-naomi-small.png);"
            />
            <div
              class="absolute bottom-6 left-8 right-8"
            >
              <button
                class="font-light bg-white py-2 text-base block w-full btn btn-outline-primary btn-sm"
                type="button"
              >
                Preview
              </button>
            </div>
          </div>
          <p
            class="text-base leading-8 mt-2 capitalize text-blue-600 font-bold"
          >
            naomi
          </p>
        </div>
        <div>
          <div
            class="mt-8 p-3 rounded-xl cursor-pointer relative border transition-all duration-500 border-gray-100 bg-gray-100"
            data-testid="theme-orenji"
          >
            <span
              aria-label="orenji"
              class="rounded-xl w-full theme-thumbnail"
              data-testid="theme-thumbnail"
              role="img"
              style="background-image: url(https://storefront-sandbox-bucket.smartseller.co.id/images/theme-orenji-small.png);"
            />
          </div>
          <p
            class="text-base leading-8 mt-2 capitalize"
          >
            orenji
          </p>
        </div>
        <div>
          <div
            class="mt-8 p-3 rounded-xl cursor-pointer relative border transition-all duration-500 border-gray-100 bg-gray-100"
            data-testid="theme-eliza"
          >
            <span
              aria-label="eliza"
              class="rounded-xl w-full theme-thumbnail"
              data-testid="theme-thumbnail"
              role="img"
              style="background-image: url(https://storefront-sandbox-bucket.smartseller.co.id/images/theme-eliza-small.png);"
            />
          </div>
          <p
            class="text-base leading-8 mt-2 capitalize"
          >
            eliza
          </p>
        </div>
        <div>
          <div
            class="mt-8 p-3 rounded-xl cursor-pointer relative border transition-all duration-500 border-gray-100 bg-gray-100"
            data-testid="theme-salma"
          >
            <span
              aria-label="salma"
              class="rounded-xl w-full theme-thumbnail"
              data-testid="theme-thumbnail"
              role="img"
              style="background-image: url(https://storefront-sandbox-bucket.smartseller.co.id/images/theme-salma-small.png);"
            />
          </div>
          <p
            class="text-base leading-8 mt-2 capitalize"
          >
            salma
          </p>
        </div>
        <div>
          <div
            class="mt-8 p-3 rounded-xl cursor-pointer relative border transition-all duration-500 border-gray-100 bg-gray-100"
            data-testid="theme-fixy"
          >
            <span
              aria-label="fixy"
              class="rounded-xl w-full theme-thumbnail"
              data-testid="theme-thumbnail"
              role="img"
              style="background-image: url(https://storefront-sandbox-bucket.smartseller.co.id/images/theme-fixy-small.png);"
            />
          </div>
          <p
            class="text-base leading-8 mt-2 capitalize"
          >
            fixy
          </p>
        </div>
      </div>
    </div>
  </div>
  ,
</div>
`;
