// Jest Snapshot v1, https://goo.gl/fbAQLP

exports[`Update Version Page Show section Renders properly with default configuration 1`] = `
<div>
  <div
    class="row"
  >
    <div
      class="col-lg-12"
    >
      <div
        class="page-header mb-9"
      >
        <div
          class="flex items-center"
        >
          <button
            class="border-[#AAAAAA] text-[#3F3F46] bg-white w-8 h-8 mr-3 rounded btn btn-outline-primary btn-sm"
            data-testid="back-button"
            type="button"
          >
            <i
              class="fi-sr-angle-small-left"
            />
          </button>
          <h2
            class="text-6xl md:h5 m-0 pt-24px pb-24px capitalize"
          >
            Storefront
          </h2>
        </div>
      </div>
      <div
        class="m-auto update-version"
      >
        <div
          class="pt-[99px] pb-0 px-0 relative card"
        >
          <div
            class="vstack align-items-center gap-11"
          >
            <div
              class="text-center px-16"
            >
              <h3
                class="text-2xl font-normal leading-9"
              >
                Storefront 2.0
              </h3>
              <h2
                class="max-w-md mb-8"
              >
                Bikin website lebih praktis, performa bisnis naik drastis!
              </h2>
              <button
                class="btn-update btn btn-primary"
                data-testid="btn-update-main"
                type="button"
              >
                Update Sekarang
              </button>
              <p
                class="text-base my-8"
              >
                Gratis tanpa biaya apapun
              </p>
            </div>
            <img
              alt="previewImage"
              class="mb-4 mx-auto img-responsive w-[848px]"
              src="preview.png"
            />
            <div
              class="section dashboard"
            >
              <div
                class="relative row"
              >
                <div
                  class="col-md-4 col-sm-12"
                >
                  <h5>
                    Dashboard Baru
                  </h5>
                  <h4>
                    Pengaturan 
                    <br />
                    lebih terorganisir
                  </h4>
                  <p
                    class="text-[#F4F4F4]"
                  >
                    Lebih simpel hanya dengan 6 tab, Anda bisa atur segala aspek Storefront dengan mudah.
                  </p>
                  <button
                    class="btn-update btn btn-primary"
                    data-testid="btn-update-tab"
                    type="button"
                  >
                    Update Sekarang
                  </button>
                </div>
                <div
                  class="absolute col-md-8 col-sm-12"
                >
                  <img
                    alt="dashboardImage"
                    class="img-responsive w-full"
                    src="dashboard.png"
                  />
                </div>
              </div>
            </div>
            <div
              class="section web-builder"
            >
              <div
                class="row"
              >
                <div
                  class="col-md-5 col-sm-12"
                >
                  <h5>
                    Website Builder
                  </h5>
                  <h4>
                    Edit Website, Lihat Instan!
                  </h4>
                  <p>
                    Selagi Anda mengedit tampilan website, kamu bisa langsung lihat hasilnya di halaman yang sama.
                  </p>
                  <button
                    class="btn-update btn btn-primary"
                    data-testid="btn-update-website_builder"
                    type="button"
                  >
                    Update Sekarang
                  </button>
                </div>
                <div
                  class="col-md-7 col-sm-12"
                >
                  <img
                    alt="webBuilderImage"
                    class="img-responsive w-full"
                    src="webBuilder.png"
                  />
                </div>
              </div>
              <div
                class="mt-36 row"
              >
                <div
                  class="col-md-5 col-sm-12"
                >
                  <h6
                    class="text-base font-bold mb-2"
                  >
                    Tambah section, satu klik.
                  </h6>
                  <p
                    class="text-base font-normal mb-6"
                  >
                    Dengan sistem pengaturan lewat toggle, custom website jadi semakin mudah.
                  </p>
                  <h6
                    class="text-base font-bold mb-2"
                  >
                    Rapikan section, tinggal klik dan geser.
                  </h6>
                  <p
                    class="text-base font-normal mb-6"
                  >
                    Urutkan section dengan cara drag and drop.
                  </p>
                  <h6
                    class="text-base font-bold mb-2"
                  >
                    Edit section, langsung lihat hasilnya.
                  </h6>
                  <p
                    class="text-base font-normal"
                  >
                    Kamu bisa melihat tampilan website yang kamu edit langsung di halaman yang sama.
                  </p>
                  <button
                    class="btn-update btn btn-primary"
                    data-testid="btn-update-sections"
                    type="button"
                  >
                    Update Sekarang
                  </button>
                </div>
                <div
                  class="col-md-7 col-sm-12"
                >
                  <img
                    alt="webBuilderMenuImage"
                    class="img-responsive w-[330px] ml-8"
                    data-testid="webBuilderMenuImage"
                    src="webBuilderMenu.png"
                  />
                </div>
              </div>
            </div>
            <div
              class="section faq"
            >
              <h5>
                Pertanyaan
              </h5>
              <h4
                class="mb-8"
              >
                FAQ - Pertanyaan Seputar Produk
              </h4>
              <div
                class="accordion"
              >
                <div
                  class="accordion-item"
                >
                  <span
                    class="accordion-icon active"
                    data-testid="faq-toggle-0"
                  >
                    <i
                      class="fi-sr-plus"
                    />
                  </span>
                  <h2
                    class="accordion-header"
                    data-testid="faq-button-0"
                  >
                    <button
                      aria-expanded="true"
                      class="accordion-button"
                      type="button"
                    >
                      Jika saya update ke Storefront versi 2.0, apakah data di Storefront lama saya akan hilang?
                    </button>
                  </h2>
                  <div
                    class="accordion-collapse collapse show"
                  >
                    <div
                      class="accordion-body"
                    >
                      <div
                        data-testid="faq-body-0"
                      >
                        Tidak. Semua data yang 
                        <strong>
                          sudah Anda simpan
                        </strong>
                         seperti domain, SEO, google analytics, pengaturan, banner slider, homepage, dan lain-lain akan tetap tersimpan, dan tidak akan berubah.
                      </div>
                    </div>
                  </div>
                </div>
                <div
                  class="accordion-item"
                >
                  <span
                    class="accordion-icon"
                    data-testid="faq-toggle-1"
                  >
                    <i
                      class="fi-sr-plus"
                    />
                  </span>
                  <h2
                    class="accordion-header"
                    data-testid="faq-button-1"
                  >
                    <button
                      aria-expanded="false"
                      class="accordion-button collapsed"
                      type="button"
                    >
                      Apa saja yang akan berubah pada Storefront versi 2.0?
                    </button>
                  </h2>
                  <div
                    class="accordion-collapse collapse"
                  >
                    <div
                      class="accordion-body"
                    >
                      <div
                        data-testid="faq-body-1"
                      >
                        Versi 2.0 memudahkan Anda untuk mendesain website dengan navigasi yang lebih instan dan mudah, dengan melihat langsung perubahan yang terjadi. Klik 
                        <a
                          href="https://help.smartseller.co.id/perbedaan-storefront-1-0-dan-storefront-2-0/"
                          target="_blank"
                        >
                          link ini
                        </a>
                         untuk melihat detail perubahan lainnya.
                      </div>
                    </div>
                  </div>
                </div>
                <div
                  class="accordion-item"
                >
                  <span
                    class="accordion-icon"
                    data-testid="faq-toggle-2"
                  >
                    <i
                      class="fi-sr-plus"
                    />
                  </span>
                  <h2
                    class="accordion-header"
                    data-testid="faq-button-2"
                  >
                    <button
                      aria-expanded="false"
                      class="accordion-button collapsed"
                      type="button"
                    >
                      Apakah update ini bersifat gratis?
                    </button>
                  </h2>
                  <div
                    class="accordion-collapse collapse"
                  >
                    <div
                      class="accordion-body"
                    >
                      <div
                        data-testid="faq-body-2"
                      >
                        Tentu saja. Update versi ini tidak dipungut biaya atau gratis.
                      </div>
                    </div>
                  </div>
                </div>
                <div
                  class="accordion-item"
                >
                  <span
                    class="accordion-icon"
                    data-testid="faq-toggle-3"
                  >
                    <i
                      class="fi-sr-plus"
                    />
                  </span>
                  <h2
                    class="accordion-header"
                    data-testid="faq-button-3"
                  >
                    <button
                      aria-expanded="false"
                      class="accordion-button collapsed"
                      type="button"
                    >
                      Mengapa saya harus update ke versi terbaru?
                    </button>
                  </h2>
                  <div
                    class="accordion-collapse collapse"
                  >
                    <div
                      class="accordion-body"
                    >
                      <div
                        data-testid="faq-body-3"
                      >
                        Storefront versi terbaru dikembangkan untuk memberikan pengalaman yang lebih memudahkan Anda sebagai pengguna. Desain website jualan dan pengaturannya lebih mudah dengan tampilan versi terbaru. Selain itu juga, Storefront versi lama tidak akan diperbaharui lagi, sehingga Anda sangat disarankan untuk segera update ke Storefront 2.0.
                      </div>
                    </div>
                  </div>
                </div>
                <div
                  class="accordion-item"
                >
                  <span
                    class="accordion-icon"
                    data-testid="faq-toggle-4"
                  >
                    <i
                      class="fi-sr-plus"
                    />
                  </span>
                  <h2
                    class="accordion-header"
                    data-testid="faq-button-4"
                  >
                    <button
                      aria-expanded="false"
                      class="accordion-button collapsed"
                      type="button"
                    >
                      Jika saya sudah melakukan update, apakah saya bisa kembali ke Storefront versi lama?
                    </button>
                  </h2>
                  <div
                    class="accordion-collapse collapse"
                  >
                    <div
                      class="accordion-body"
                    >
                      <div
                        data-testid="faq-body-4"
                      >
                        Tidak. Jika sudah update ke versi terbaru, Anda tidak akan bisa kembali ke Storefront versi lama. Anda juga tidak dapat kembali ke StoreFront versi lama dalam masa trial sekali pun.
                      </div>
                    </div>
                  </div>
                </div>
                <div
                  class="accordion-item"
                >
                  <span
                    class="accordion-icon"
                    data-testid="faq-toggle-5"
                  >
                    <i
                      class="fi-sr-plus"
                    />
                  </span>
                  <h2
                    class="accordion-header"
                    data-testid="faq-button-5"
                  >
                    <button
                      aria-expanded="false"
                      class="accordion-button collapsed"
                      type="button"
                    >
                      Apakah update berbeda dengan upgrade membership?
                    </button>
                  </h2>
                  <div
                    class="accordion-collapse collapse"
                  >
                    <div
                      class="accordion-body"
                    >
                      <div
                        data-testid="faq-body-5"
                      >
                        Berbeda. Update Storefront 
                        <strong>
                          hanya mengubah tampilan
                        </strong>
                         Storefront dengan teknologi dan desain terbaru. Update tersebut 
                        <strong>
                          tidak mengubah paket membership
                        </strong>
                         SmartSeller baik Freemium, Premium, maupun Platinum.
                      </div>
                    </div>
                  </div>
                </div>
              </div>
              <div
                class="text-center"
              >
                <p
                  class="max-w-full mb-2"
                >
                  Kamu bisa melihat detail perubahan dengan klik link di bawah ini
                </p>
                <a
                  class="font-bold"
                  href="https://help.smartseller.co.id/perbedaan-storefront-1-0-dan-storefront-2-0/"
                  target="_blank"
                >
                  Pelajari Detailnya
                </a>
                <br />
                <button
                  class="btn-update btn btn-primary"
                  data-testid="btn-update-faq"
                  type="button"
                >
                  Update Sekarang
                </button>
              </div>
            </div>
          </div>
          <div
            class="card-footer"
          >
            Setelah update, tidak bisa kembali ke versi lama.
          </div>
          <button
            class="btn-to-top opacity-0 invisible btn btn-primary"
            type="button"
          >
            <i
              class="fi-sr-angle-up"
            />
          </button>
        </div>
      </div>
    </div>
  </div>
  ,
</div>
`;
